199,133,238,246,0.9962140917778015
538,96,581,221,0.9956527352333069
230,-3,260,77,0.9886600375175476
52,150,108,281,0.9870703816413879
320,1,359,93,0.9775928854942322
234,157,285,280,0.976089358329773
45,82,82,170,0.9668229818344116
89,210,163,352,0.9578471779823303
199,35,238,112,0.9461854100227356
358,0,384,44,0.7391502857208252