309,299,395,446,0.9979566931724548
312,28,358,126,0.9967472553253174
463,61,502,169,0.9957410097122192
192,36,232,123,0.9948312044143677
483,0,509,41,0.9703556895256042
-1,227,34,347,0.9600591063499451
472,124,524,241,0.9370766878128052