69,340,126,443,0.9957988858222961
89,63,129,164,0.9904531240463257
36,179,87,312,0.9723571538925171
357,13,401,116,0.9581822156906128
417,0,458,87,0.9551670551300049
118,403,188,445,0.9528884291648865
71,153,124,280,0.9493822455406189
287,0,322,72,0.9004279375076294
110,52,131,92,0.5927706956863403
45,73,72,156,0.5797275900840759