385,157,428,290,0.9953843355178833
556,124,594,242,0.9933666586875916
465,170,515,315,0.9894950985908508
193,76,244,217,0.9811014533042908
98,64,136,160,0.9666732549667358
302,39,334,141,0.9619265198707581
195,43,231,113,0.8195305466651917
321,37,355,119,0.5969753265380859