192,0,224,93,0.9987149834632874
281,34,312,111,0.9977083802223206
24,-1,50,59,0.9969290494918823
247,27,280,111,0.9968874454498291
150,0,179,83,0.9941948056221008
297,109,344,210,0.9940994381904602
59,129,99,233,0.9917812347412109
33,75,75,169,0.9849779009819031
58,0,87,61,0.9816026091575623
2,0,22,49,0.9260430932044983
305,231,356,280,0.8884062170982361