192,347,257,442,0.9941161274909973
266,367,340,445,0.9924345016479492
409,0,453,94,0.9892783164978027
3,121,57,236,0.9766704440116882
374,2,407,84,0.9715247750282288
47,77,80,169,0.9711011052131653
142,125,195,244,0.9434755444526672
448,-2,486,64,0.9209042191505432
107,155,150,265,0.9026153683662415
15,89,53,141,0.8429843783378601
322,-2,347,46,0.6333456039428711
0,89,15,144,0.5371732115745544