329,14,372,131,0.9963380694389343
162,93,215,228,0.9953843355178833
423,186,480,338,0.9938539266586304
230,-1,267,119,0.9905647039413452
506,219,574,328,0.978363037109375
370,0,417,108,0.976699948310852
90,23,150,172,0.971670389175415
154,-2,193,92,0.9696076512336731