126,324,205,446,0.99896639585495
497,245,548,392,0.9980432987213135
65,309,131,440,0.9978926777839661
11,86,57,191,0.988855242729187
105,48,137,147,0.9772323966026306
348,-1,372,41,0.9550166130065918
128,52,160,141,0.8574106097221375
146,71,181,146,0.7005617022514343
33,73,67,150,0.5538052916526794