434,244,489,397,0.9989224076271057
43,99,82,202,0.9845529794692993
174,121,219,212,0.9770869016647339
401,48,443,162,0.9762715101242065
329,0,363,59,0.9720750451087952
59,46,104,142,0.9451284408569336
152,67,195,127,0.9411280751228333
191,217,227,338,0.890434980392456