301,238,356,385,0.998833179473877
208,9,241,113,0.9800583124160767
372,56,411,155,0.9627999067306519
308,59,366,185,0.9620976448059082
239,8,271,123,0.9523263573646545
161,32,193,118,0.9416948556900024
309,44,347,112,0.5283670425415039