371,192,421,335,0.9975995421409607
251,-1,293,94,0.9952775239944458
0,233,36,371,0.9951251149177551
347,73,388,180,0.9874624013900757
276,93,328,218,0.9807018041610718
180,36,211,114,0.9647080302238464
0,105,35,210,0.9549718499183655
266,71,301,152,0.9488970041275024
399,0,428,47,0.937878429889679
209,19,233,99,0.8933555483818054