340,334,401,445,0.9994028806686401
538,271,595,393,0.9990590810775757
280,332,345,443,0.9990429282188416
195,99,250,224,0.9916788935661316
364,210,410,333,0.9875552654266357
543,3,578,94,0.943522036075592