315,238,363,387,0.999440610408783
394,262,455,407,0.9970656037330627
78,150,121,290,0.9969882965087891
99,78,147,156,0.9940850734710693
215,87,257,200,0.9877118468284607
247,76,284,177,0.9766268730163574
1,117,33,242,0.9730135202407837