127,162,148,230,0.9978896379470825
180,123,202,195,0.9973205327987671
275,163,302,244,0.9955244064331055
215,203,237,255,0.9915025234222412
253,150,276,227,0.9884146451950073
78,159,113,230,0.983082115650177
140,217,166,254,0.9817733764648438
199,221,223,255,0.977829098701477
329,191,363,259,0.9713122248649597
42,150,69,201,0.9531752467155457
81,216,111,254,0.901365339756012
60,81,82,126,0.8621864318847656