110,180,138,261,0.9980273842811584
131,160,158,237,0.9972344040870667
319,214,347,302,0.9969375729560852
18,213,57,301,0.9968709945678711
349,210,379,298,0.9934300780296326
6,175,30,244,0.9915393590927124