217,63,245,137,0.9981864094734192
152,69,178,143,0.9979830384254456
242,142,273,232,0.997547447681427
251,84,276,150,0.9975284934043884
76,26,102,92,0.9947042465209961
369,23,392,89,0.9938071966171265
383,169,415,279,0.9859894514083862
342,114,373,210,0.978329062461853
297,23,326,90,0.9776859879493713
398,70,415,144,0.9516306519508362