273,131,306,224,0.9995024800300598
242,64,281,149,0.9982534050941467
377,134,406,235,0.9967542886734009
336,183,366,285,0.9843472838401794
206,161,227,232,0.7805295586585999
404,65,416,141,0.5758447647094727
196,158,215,235,0.5622316598892212