171,203,201,289,0.9982228875160217
130,215,158,300,0.9965559840202332
339,98,360,155,0.9837394952774048
318,118,345,185,0.9796841740608215
357,102,380,155,0.9787144064903259
120,204,140,293,0.95344078540802