130,191,161,257,0.9984144568443298
68,139,101,223,0.9978928565979004
49,184,81,258,0.9912029504776001
298,181,322,256,0.9760750532150269
239,181,267,254,0.9758704304695129
263,94,280,152,0.9526378512382507
320,174,354,256,0.9401577711105347
372,68,383,124,0.8258121609687805
336,75,350,122,0.7909161448478699
15,222,39,255,0.7757218480110168