143,4,179,110,0.9970242977142334
189,1,225,90,0.9919534921646118
336,23,381,154,0.9627035856246948
300,17,340,133,0.9341166615486145
1,-1,45,91,0.9104159474372864
208,0,236,66,0.8952750563621521
299,-1,327,56,0.6265888214111328