18,172,52,238,0.9989409446716309
170,220,218,302,0.9981613159179688
146,199,176,283,0.9976198673248291
326,100,346,158,0.983508825302124
343,108,370,178,0.9829699993133545
106,205,135,289,0.977660059928894