114,211,148,256,0.9989901185035706
300,165,328,244,0.9975053668022156
245,159,264,238,0.9966928958892822
72,153,110,237,0.9948546886444092
277,170,297,245,0.9948010444641113
212,217,244,255,0.990135669708252
281,87,299,142,0.9844936728477478
345,80,362,124,0.984353244304657
309,77,327,124,0.9103149175643921
318,66,337,118,0.8514993786811829