348,-2,389,90,0.9986809492111206
279,0,318,99,0.9975992441177368
227,3,273,96,0.9970317482948303
191,2,226,96,0.9927867650985718
0,0,37,63,0.9900149703025818
316,-1,353,94,0.9818918704986572
269,-1,292,54,0.7064301371574402