232,107,277,232,0.9979420900344849
287,8,326,124,0.993619978427887
115,86,153,215,0.9877194166183472
119,0,153,55,0.9863283634185791
73,0,103,56,0.979717493057251
74,126,134,269,0.9787704944610596
379,4,400,86,0.8526029586791992