246,219,285,313,0.9977759718894958
210,224,250,316,0.997618556022644
112,179,142,251,0.9972077012062073
49,171,77,257,0.9970510601997375
374,269,416,325,0.9914968013763428
70,175,91,254,0.8649198412895203