492,446,525,536,1.0
383,179,404,235,1.0
342,175,362,229,1.0
314,178,334,233,1.0
379,103,393,139,1.0
363,98,373,128,1.0
347,97,357,129,1.0
335,94,345,131,1.0
352,110,365,153,1.0
229,99,242,131,1.0
99,98,112,137,1.0
91,104,104,139,1.0