257,251,312,418,1.0
225,235,277,398,1.0
490,168,514,229,1.0
459,162,476,214,1.0
449,153,462,203,1.0
439,142,456,192,1.0
433,150,453,204,1.0
419,151,433,201,1.0
403,152,421,202,1.0
384,151,401,204,1.0
235,119,253,169,1.0
256,126,267,166,1.0
329,133,344,181,1.0
338,133,352,176,1.0
24,163,53,249,1.0
56,195,87,295,1.0
135,181,154,232,1.0
151,165,176,232,1.0
180,171,207,251,1.0
360,195,393,286,1.0
308,177,330,239,1.0
301,155,319,209,1.0
269,154,293,221,1.0
204,154,222,213,1.0
213,170,235,239,1.0
259,167,282,233,1.0
250,152,266,199,1.0
232,159,247,212,1.0
229,171,246,233,1.0
240,176,262,255,1.0