312,286,394,506,1.0
520,403,600,629,1.0
308,37,339,135,1.0
207,22,241,127,1.0
1,173,42,339,1.0
72,59,107,182,1.0
196,120,236,254,1.0
78,119,111,249,1.0
57,147,101,298,1.0
105,207,135,293,1.0
111,214,156,384,1.0