194,388,293,652,1.0
233,140,250,191,1.0
212,136,224,178,1.0
197,134,209,178,1.0
205,140,219,186,1.0
121,149,139,203,1.0
145,152,168,223,1.0
144,161,165,246,1.0
98,187,114,230,1.0
81,162,99,231,1.0
99,143,120,204,1.0