284,272,365,488,1.0
384,264,453,448,1.0
245,337,290,457,1.0
72,1,108,100,1.0
105,1,138,96,1.0
139,2,171,110,1.0
158,1,193,97,1.0
225,1,264,109,1.0
305,2,336,113,1.0
351,1,384,120,1.0
431,63,472,197,1.0
460,1,494,105,1.0
514,86,556,213,1.0
527,67,565,193,1.0