308,359,360,499,1.0
577,193,594,257,1.0
570,93,583,139,1.0
557,214,576,289,1.0
539,206,562,279,1.0
481,204,505,286,1.0
429,219,452,289,1.0
382,158,402,231,1.0
172,132,190,194,1.0
186,144,207,207,1.0
229,163,246,228,1.0
21,259,50,352,1.0