167,205,241,402,1.0
229,183,312,404,1.0
1,129,57,338,1.0
484,26,545,225,1.0
510,21,563,199,1.0
137,297,218,514,1.0
313,465,358,586,1.0
344,276,422,486,1.0
573,359,654,575,1.0
701,400,775,598,1.0
729,371,797,573,1.0
622,20,694,213,1.0
664,19,731,198,1.0
318,375,388,569,1.0
359,1,412,151,1.0
583,1,638,161,1.0