241,227,323,446,1.0
702,44,782,257,1.0
130,415,197,594,1.0
392,309,492,576,1.0
656,417,722,595,1.0
716,321,797,574,1.0
563,317,636,552,1.0
584,268,658,497,1.0
495,170,571,375,1.0
397,257,489,494,1.0
673,81,747,279,1.0
552,102,626,328,1.0
259,66,334,266,1.0
354,1,432,210,1.0
492,1,561,186,1.0
268,26,341,237,1.0
87,358,157,574,1.0
87,299,167,545,1.0