380,259,439,416,1.0
425,308,481,459,1.0
489,303,544,450,1.0
312,225,367,373,1.0
252,208,291,313,1.0
287,173,336,297,1.0
425,142,462,247,1.0
469,67,522,206,1.0
625,102,682,226,1.0
124,153,179,288,1.0
89,162,132,300,1.0
3,121,52,246,1.0
65,111,115,257,1.0
167,80,219,229,1.0
239,87,299,247,1.0
156,20,204,149,1.0
207,1,253,126,1.0
332,1,378,123,1.0
394,1,443,136,1.0
504,23,548,154,1.0
508,1,558,110,1.0
352,505,401,595,1.0