326,316,373,443,1.0
378,354,437,512,1.0
515,312,585,460,1.0
518,167,599,348,1.0
261,500,331,598,1.0
95,260,158,429,1.0
181,186,264,337,1.0
591,4,649,155,1.0
206,103,268,256,1.0
136,175,200,320,1.0
132,91,211,225,1.0
119,16,193,165,1.0
206,19,266,168,1.0
240,112,278,215,1.0