476,328,511,421,1.0
154,296,191,395,1.0
221,396,267,519,1.0
597,202,616,263,1.0
584,208,605,264,1.0
516,224,539,288,1.0
481,239,505,296,1.0
739,291,773,360,1.0
717,311,748,389,1.0
428,291,449,360,1.0
425,301,446,375,1.0
360,127,373,170,1.0
376,132,388,176,1.0
355,174,370,222,1.0
337,160,353,216,1.0
319,173,337,232,1.0
278,175,298,234,1.0
241,174,265,235,1.0