405,110,511,463,1.0
338,157,435,458,1.0
720,219,796,549,1.0
713,127,797,498,1.0
709,49,797,436,1.0
624,1,720,308,1.0
318,54,420,417,1.0
275,1,364,262,1.0
133,30,220,322,1.0
54,24,122,275,1.0
102,82,187,366,1.0
13,72,93,379,1.0
92,156,185,469,1.0