232,171,291,333,1.0
132,179,178,313,1.0
173,171,218,305,1.0
338,148,349,189,1.0
292,147,304,194,1.0
279,145,295,199,1.0
265,147,281,200,1.0
230,149,250,211,1.0
255,155,275,219,1.0
189,161,213,231,1.0
20,158,54,259,1.0