192,496,244,636,1.0
14,325,102,561,1.0
223,281,272,413,1.0
228,88,270,201,1.0
249,70,295,193,1.0
381,79,427,203,1.0
388,267,427,373,1.0
457,1,488,86,1.0
292,8,319,101,1.0
361,4,397,102,1.0
561,31,591,138,1.0
481,19,515,114,1.0
471,43,507,143,1.0
459,116,497,219,1.0
454,213,491,312,1.0
468,273,505,373,1.0