99,323,136,423,1.0
153,349,194,461,1.0
190,490,250,651,1.0
213,240,247,333,1.0
141,399,183,511,1.0
229,625,287,781,1.0
279,570,348,756,1.0
287,643,344,796,1.0
458,261,491,351,1.0
444,266,480,362,1.0
412,256,442,337,1.0
357,250,392,343,1.0
400,278,434,369,1.0
397,309,440,424,1.0
403,334,443,442,1.0
147,135,181,227,1.0
474,1,513,108,1.0
425,1,456,84,1.0
224,1,245,70,1.0
208,1,238,82,1.0
171,1,201,82,1.0
396,1,416,56,1.0
121,4,149,80,1.0
105,6,124,58,1.0
89,3,108,55,1.0
79,9,95,53,1.0
60,8,84,78,1.0
79,30,106,117,1.0
121,86,154,180,1.0
28,7,46,57,1.0
560,1,597,100,1.0
129,323,161,410,1.0