335,210,386,348,1.0
224,219,269,339,1.0
420,106,458,234,1.0
479,144,520,280,1.0
500,66,536,170,1.0
522,103,566,223,1.0
360,104,407,231,1.0
374,119,416,252,1.0
338,1,372,101,1.0
315,1,347,87,1.0
292,22,341,153,1.0
273,54,321,182,1.0
168,1,205,102,1.0
142,78,186,196,1.0
228,313,280,454,1.0
9,1,48,95,1.0