106,242,149,358,1.0
267,270,310,387,1.0
356,271,399,387,1.0
301,266,338,365,1.0
293,492,344,628,1.0
365,461,419,602,1.0
359,525,411,664,1.0
14,114,49,209,1.0
50,112,85,206,1.0
320,313,377,465,1.0
153,21,195,133,1.0
266,1,298,88,1.0
288,1,324,98,1.0
497,109,532,203,1.0
504,138,533,215,1.0
440,63,470,144,1.0
396,81,426,168,1.0
447,111,475,205,1.0
436,117,461,210,1.0
421,121,451,215,1.0
380,185,421,296,1.0