447,221,497,356,1.0
140,291,192,412,1.0
58,238,110,377,1.0
161,264,207,380,1.0
428,156,466,259,1.0
386,118,428,230,1.0
287,138,330,254,1.0
278,176,319,286,1.0
229,109,268,213,1.0
198,112,237,219,1.0
169,88,209,197,1.0
148,121,186,224,1.0
221,180,261,288,1.0
196,216,223,289,1.0
88,231,134,354,1.0