400,334,458,488,1.0
202,507,267,681,1.0
200,418,250,553,1.0
532,126,594,293,1.0
180,47,217,146,1.0
157,87,207,222,1.0
80,139,145,281,1.0
84,216,138,295,1.0
188,222,227,326,1.0
230,216,278,323,1.0
238,259,272,349,1.0