167,106,230,274,1.0
214,108,279,283,1.0
513,107,571,263,1.0
470,114,525,261,1.0
3,55,65,473,1.0
94,112,136,225,1.0
40,109,126,339,1.0
259,37,288,122,1.0
277,30,306,116,1.0
273,115,316,255,1.0
561,131,590,211,1.0