352,299,399,426,1.0
307,281,365,436,1.0
27,367,79,506,1.0
454,3,491,103,1.0
408,1,436,76,1.0
382,7,412,88,1.0
360,19,388,102,1.0
336,60,365,141,1.0
311,92,342,176,1.0
289,123,322,212,1.0
200,1,232,113,1.0
122,6,155,105,1.0
90,11,118,110,1.0
92,30,124,130,1.0
92,51,123,160,1.0
59,23,87,118,1.0
1,20,37,117,1.0